^C:\USERS\POPINA\DOCUMENTS\ENIGMA\AES\AES\AES\AES.C
/c /ZI /nologo /W3 /WX- /sdl /Od /Oy- /D _MBCS /Gm /EHsc /RTC1 /MDd /GS /fp:precise /Zc:wchar_t /Zc:forScope /Fo"DEBUG\\" /Fd"DEBUG\VC120.PDB" /FR"Debug\\" /Gd /TC /analyze- C:\USERS\POPINA\DOCUMENTS\ENIGMA\AES\AES\AES\AES.C
^C:\USERS\POPINA\DOCUMENTS\ENIGMA\AES\AES\AES\QUEUE.C
/c /ZI /nologo /W3 /WX- /sdl /Od /Oy- /D _MBCS /Gm /EHsc /RTC1 /MDd /GS /fp:precise /Zc:wchar_t /Zc:forScope /Fo"DEBUG\\" /Fd"DEBUG\VC120.PDB" /FR"Debug\\" /Gd /TC /analyze- C:\USERS\POPINA\DOCUMENTS\ENIGMA\AES\AES\AES\QUEUE.C
